^D:\PPAGENT\PPAGENT\RELEASE\CPPWEBSOCK.OBJ|D:\PPAGENT\PPAGENT\RELEASE\GETOPT.OBJ|D:\PPAGENT\PPAGENT\RELEASE\GETOPT_LONG.OBJ|D:\PPAGENT\PPAGENT\RELEASE\GETTIMEOFDAY.OBJ|D:\PPAGENT\PPAGENT\RELEASE\LOGGER.OBJ|D:\PPAGENT\PPAGENT\RELEASE\MAIN.OBJ|D:\PPAGENT\PPAGENT\RELEASE\MQTTCONNECTCLIENT.OBJ|D:\PPAGENT\PPAGENT\RELEASE\MQTTCONNECTSERVER.OBJ|D:\PPAGENT\PPAGENT\RELEASE\MQTTDESERIALIZEPUBLISH.OBJ|D:\PPAGENT\PPAGENT\RELEASE\MQTTFORMAT.OBJ|D:\PPAGENT\PPAGENT\RELEASE\MQTTPACKET.OBJ|D:\PPAGENT\PPAGENT\RELEASE\MQTTSERIALIZEEX.OBJ|D:\PPAGENT\PPAGENT\RELEASE\MQTTSERIALIZEPUBLISH.OBJ|D:\PPAGENT\PPAGENT\RELEASE\MQTTSUBSCRIBECLIENT.OBJ|D:\PPAGENT\PPAGENT\RELEASE\MQTTSUBSCRIBESERVER.OBJ|D:\PPAGENT\PPAGENT\RELEASE\MQTTUNSUBSCRIBECLIENT.OBJ|D:\PPAGENT\PPAGENT\RELEASE\MQTTUNSUBSCRIBESERVER.OBJ|D:\PPAGENT\PPAGENT\RELEASE\PCH.OBJ|D:\PPAGENT\PPAGENT\RELEASE\STACKTRACER.OBJ|D:\PPAGENT\PPAGENT\RELEASE\TEST.OBJ|D:\PPAGENT\PPAGENT\RELEASE\WAMQTTMANAGER.OBJ|D:\PPAGENT\PPAGENT\RELEASE\WIN32.OBJ
C:\WINDOWS\GLOBALIZATION\SORTING\SORTDEFAULT.NLS
C:\PROGRAM FILES (X86)\MICROSOFT SDKS\WINDOWS\V7.1A\LIB\KERNEL32.LIB
C:\PROGRAM FILES (X86)\MICROSOFT SDKS\WINDOWS\V7.1A\LIB\USER32.LIB
C:\PROGRAM FILES (X86)\MICROSOFT SDKS\WINDOWS\V7.1A\LIB\GDI32.LIB
C:\PROGRAM FILES (X86)\MICROSOFT SDKS\WINDOWS\V7.1A\LIB\WINSPOOL.LIB
C:\PROGRAM FILES (X86)\MICROSOFT SDKS\WINDOWS\V7.1A\LIB\COMDLG32.LIB
C:\PROGRAM FILES (X86)\MICROSOFT SDKS\WINDOWS\V7.1A\LIB\ADVAPI32.LIB
C:\PROGRAM FILES (X86)\MICROSOFT SDKS\WINDOWS\V7.1A\LIB\SHELL32.LIB
C:\PROGRAM FILES (X86)\MICROSOFT SDKS\WINDOWS\V7.1A\LIB\OLE32.LIB
C:\PROGRAM FILES (X86)\MICROSOFT SDKS\WINDOWS\V7.1A\LIB\OLEAUT32.LIB
C:\PROGRAM FILES (X86)\MICROSOFT SDKS\WINDOWS\V7.1A\LIB\UUID.LIB
C:\PROGRAM FILES (X86)\MICROSOFT SDKS\WINDOWS\V7.1A\LIB\ODBC32.LIB
C:\PROGRAM FILES (X86)\MICROSOFT SDKS\WINDOWS\V7.1A\LIB\ODBCCP32.LIB
C:\PROGRAM FILES (X86)\MICROSOFT SDKS\WINDOWS\V7.1A\LIB\WS2_32.LIB
D:\PPAGENT\PPAGENT\LIB\LIB\WEBSOCKETS.LIB
D:\PPAGENT\PPAGENT\LIB\LIB\WEBSOCKETS_STATIC.LIB
D:\PPAGENT\PPAGENT\LIB\LIB\ZLIB_INTERNAL.LIB
D:\PPAGENT\PPAGENT\SOCI_3_2_3\BIN\LIBSOCI_CORE_3_2.LIB
D:\PPAGENT\PPAGENT\SOCI_3_2_3\BIN\LIBSOCI_EMPTY_3_2.LIB
D:\PPAGENT\PPAGENT\SOCI_3_2_3\BIN\LIBSOCI_ODBC_3_2.LIB
D:\PPAGENT\PPAGENT\SOCI_3_2_3\BIN\SOCI_CORE_3_2.LIB
D:\PPAGENT\PPAGENT\SOCI_3_2_3\BIN\SOCI_EMPTY_3_2.LIB
D:\PPAGENT\PPAGENT\SOCI_3_2_3\BIN\SOCI_ODBC_3_2.LIB
D:\PPAGENT\PPAGENT\RELEASE\CPPWEBSOCK.OBJ
D:\PPAGENT\PPAGENT\RELEASE\MQTTSERIALIZEEX.OBJ
D:\PPAGENT\PPAGENT\RELEASE\MQTTCONNECTCLIENT.OBJ
D:\PPAGENT\PPAGENT\RELEASE\MQTTCONNECTSERVER.OBJ
D:\PPAGENT\PPAGENT\RELEASE\MQTTDESERIALIZEPUBLISH.OBJ
D:\PPAGENT\PPAGENT\RELEASE\MQTTFORMAT.OBJ
D:\PPAGENT\PPAGENT\RELEASE\MQTTPACKET.OBJ
D:\PPAGENT\PPAGENT\RELEASE\MQTTSERIALIZEPUBLISH.OBJ
D:\PPAGENT\PPAGENT\RELEASE\MQTTSUBSCRIBECLIENT.OBJ
D:\PPAGENT\PPAGENT\RELEASE\MQTTSUBSCRIBESERVER.OBJ
D:\PPAGENT\PPAGENT\RELEASE\MQTTUNSUBSCRIBECLIENT.OBJ
D:\PPAGENT\PPAGENT\RELEASE\MQTTUNSUBSCRIBESERVER.OBJ
D:\PPAGENT\PPAGENT\RELEASE\GETOPT.OBJ
D:\PPAGENT\PPAGENT\RELEASE\GETOPT_LONG.OBJ
D:\PPAGENT\PPAGENT\RELEASE\GETTIMEOFDAY.OBJ
D:\PPAGENT\PPAGENT\RELEASE\WIN32.OBJ
D:\PPAGENT\PPAGENT\RELEASE\MAIN.OBJ
D:\PPAGENT\PPAGENT\RELEASE\WAMQTTMANAGER.OBJ
D:\PPAGENT\PPAGENT\RELEASE\PCH.OBJ
D:\PPAGENT\PPAGENT\RELEASE\TEST.OBJ
D:\PPAGENT\PPAGENT\RELEASE\LOGGER.OBJ
D:\PPAGENT\PPAGENT\RELEASE\STACKTRACER.OBJ
C:\PROGRAM FILES (X86)\MICROSOFT VISUAL STUDIO 12.0\VC\BIN\C2.DLL
C:\PROGRAM FILES (X86)\MICROSOFT VISUAL STUDIO 12.0\VC\LIB\MSVCPRT.LIB
D:\PPAGENT\PPAGENT\BOOST_1_60_0\BIN\LIBBOOST_DATE_TIME-VC120-MT-1_60.LIB
D:\PPAGENT\PPAGENT\BOOST_1_60_0\BIN\LIBBOOST_LOG-VC120-MT-1_60.LIB
D:\PPAGENT\PPAGENT\BOOST_1_60_0\BIN\LIBBOOST_SYSTEM-VC120-MT-1_60.LIB
D:\PPAGENT\PPAGENT\BOOST_1_60_0\BIN\LIBBOOST_FILESYSTEM-VC120-MT-1_60.LIB
D:\PPAGENT\PPAGENT\BOOST_1_60_0\BIN\LIBBOOST_THREAD-VC120-MT-1_60.LIB
D:\PPAGENT\PPAGENT\BOOST_1_60_0\BIN\LIBBOOST_LOG_SETUP-VC120-MT-1_60.LIB
D:\PPAGENT\PPAGENT\BOOST_1_60_0\BIN\LIBBOOST_CHRONO-VC120-MT-1_60.LIB
D:\PPAGENT\PPAGENT\BOOST_1_60_0\BIN\LIBBOOST_ATOMIC-VC120-MT-1_60.LIB
C:\PROGRAM FILES (X86)\MICROSOFT VISUAL STUDIO 12.0\VC\LIB\MSVCRT.LIB
C:\PROGRAM FILES (X86)\MICROSOFT VISUAL STUDIO 12.0\VC\LIB\OLDNAMES.LIB
C:\PROGRAM FILES (X86)\MICROSOFT SDKS\WINDOWS\V7.1A\LIB\DBGHELP.LIB
C:\PROGRAM FILES (X86)\MICROSOFT VISUAL STUDIO 12.0\VC\BIN\1028\LINKUI.DLL
C:\PROGRAM FILES (X86)\MICROSOFT VISUAL STUDIO 12.0\VC\BIN\MSPDBSRV.EXE
C:\PROGRAM FILES (X86)\MICROSOFT SDKS\WINDOWS\V7.1A\BIN\RC.EXE
C:\PROGRAM FILES (X86)\MICROSOFT VISUAL STUDIO 12.0\VC\BIN\CVTRES.EXE
C:\WINDOWS\SYSTEM32\TZRES.DLL
C:\WINDOWS\SYSTEM32\RSAENH.DLL
^D:\TEMP\JUNYU\PNP_AGENT\PPAGENT\RELEASE\CPPWEBSOCK.OBJ|D:\TEMP\JUNYU\PNP_AGENT\PPAGENT\RELEASE\GETOPT.OBJ|D:\TEMP\JUNYU\PNP_AGENT\PPAGENT\RELEASE\GETOPT_LONG.OBJ|D:\TEMP\JUNYU\PNP_AGENT\PPAGENT\RELEASE\GETTIMEOFDAY.OBJ|D:\TEMP\JUNYU\PNP_AGENT\PPAGENT\RELEASE\LOGGER.OBJ|D:\TEMP\JUNYU\PNP_AGENT\PPAGENT\RELEASE\MAIN.OBJ|D:\TEMP\JUNYU\PNP_AGENT\PPAGENT\RELEASE\MQTTCONNECTCLIENT.OBJ|D:\TEMP\JUNYU\PNP_AGENT\PPAGENT\RELEASE\MQTTCONNECTSERVER.OBJ|D:\TEMP\JUNYU\PNP_AGENT\PPAGENT\RELEASE\MQTTDESERIALIZEPUBLISH.OBJ|D:\TEMP\JUNYU\PNP_AGENT\PPAGENT\RELEASE\MQTTFORMAT.OBJ|D:\TEMP\JUNYU\PNP_AGENT\PPAGENT\RELEASE\MQTTPACKET.OBJ|D:\TEMP\JUNYU\PNP_AGENT\PPAGENT\RELEASE\MQTTSERIALIZEEX.OBJ|D:\TEMP\JUNYU\PNP_AGENT\PPAGENT\RELEASE\MQTTSERIALIZEPUBLISH.OBJ|D:\TEMP\JUNYU\PNP_AGENT\PPAGENT\RELEASE\MQTTSUBSCRIBECLIENT.OBJ|D:\TEMP\JUNYU\PNP_AGENT\PPAGENT\RELEASE\MQTTSUBSCRIBESERVER.OBJ|D:\TEMP\JUNYU\PNP_AGENT\PPAGENT\RELEASE\MQTTUNSUBSCRIBECLIENT.OBJ|D:\TEMP\JUNYU\PNP_AGENT\PPAGENT\RELEASE\MQTTUNSUBSCRIBESERVER.OBJ|D:\TEMP\JUNYU\PNP_AGENT\PPAGENT\RELEASE\PCH.OBJ|D:\TEMP\JUNYU\PNP_AGENT\PPAGENT\RELEASE\STACKTRACER.OBJ|D:\TEMP\JUNYU\PNP_AGENT\PPAGENT\RELEASE\TEST.OBJ|D:\TEMP\JUNYU\PNP_AGENT\PPAGENT\RELEASE\WAMQTTMANAGER.OBJ|D:\TEMP\JUNYU\PNP_AGENT\PPAGENT\RELEASE\WIN32.OBJ
C:\WINDOWS\GLOBALIZATION\SORTING\SORTDEFAULT.NLS
C:\PROGRAM FILES (X86)\MICROSOFT SDKS\WINDOWS\V7.1A\LIB\KERNEL32.LIB
C:\PROGRAM FILES (X86)\MICROSOFT SDKS\WINDOWS\V7.1A\LIB\USER32.LIB
C:\PROGRAM FILES (X86)\MICROSOFT SDKS\WINDOWS\V7.1A\LIB\GDI32.LIB
C:\PROGRAM FILES (X86)\MICROSOFT SDKS\WINDOWS\V7.1A\LIB\WINSPOOL.LIB
C:\PROGRAM FILES (X86)\MICROSOFT SDKS\WINDOWS\V7.1A\LIB\COMDLG32.LIB
C:\PROGRAM FILES (X86)\MICROSOFT SDKS\WINDOWS\V7.1A\LIB\ADVAPI32.LIB
C:\PROGRAM FILES (X86)\MICROSOFT SDKS\WINDOWS\V7.1A\LIB\SHELL32.LIB
C:\PROGRAM FILES (X86)\MICROSOFT SDKS\WINDOWS\V7.1A\LIB\OLE32.LIB
C:\PROGRAM FILES (X86)\MICROSOFT SDKS\WINDOWS\V7.1A\LIB\OLEAUT32.LIB
C:\PROGRAM FILES (X86)\MICROSOFT SDKS\WINDOWS\V7.1A\LIB\UUID.LIB
C:\PROGRAM FILES (X86)\MICROSOFT SDKS\WINDOWS\V7.1A\LIB\ODBC32.LIB
C:\PROGRAM FILES (X86)\MICROSOFT SDKS\WINDOWS\V7.1A\LIB\ODBCCP32.LIB
C:\PROGRAM FILES (X86)\MICROSOFT SDKS\WINDOWS\V7.1A\LIB\WS2_32.LIB
D:\TEMP\JUNYU\PNP_AGENT\PPAGENT\LIB\LIB\WEBSOCKETS.LIB
D:\TEMP\JUNYU\PNP_AGENT\PPAGENT\LIB\LIB\WEBSOCKETS_STATIC.LIB
D:\TEMP\JUNYU\PNP_AGENT\PPAGENT\LIB\LIB\ZLIB_INTERNAL.LIB
D:\TEMP\JUNYU\PNP_AGENT\PPAGENT\SOCI_3_2_3\BIN\LIBSOCI_CORE_3_2.LIB
D:\TEMP\JUNYU\PNP_AGENT\PPAGENT\SOCI_3_2_3\BIN\LIBSOCI_EMPTY_3_2.LIB
D:\TEMP\JUNYU\PNP_AGENT\PPAGENT\SOCI_3_2_3\BIN\LIBSOCI_ODBC_3_2.LIB
D:\TEMP\JUNYU\PNP_AGENT\PPAGENT\SOCI_3_2_3\BIN\SOCI_CORE_3_2.LIB
D:\TEMP\JUNYU\PNP_AGENT\PPAGENT\SOCI_3_2_3\BIN\SOCI_EMPTY_3_2.LIB
D:\TEMP\JUNYU\PNP_AGENT\PPAGENT\SOCI_3_2_3\BIN\SOCI_ODBC_3_2.LIB
D:\TEMP\JUNYU\PNP_AGENT\PPAGENT\RELEASE\CPPWEBSOCK.OBJ
D:\TEMP\JUNYU\PNP_AGENT\PPAGENT\RELEASE\MQTTSERIALIZEEX.OBJ
D:\TEMP\JUNYU\PNP_AGENT\PPAGENT\RELEASE\MQTTCONNECTCLIENT.OBJ
D:\TEMP\JUNYU\PNP_AGENT\PPAGENT\RELEASE\MQTTCONNECTSERVER.OBJ
D:\TEMP\JUNYU\PNP_AGENT\PPAGENT\RELEASE\MQTTDESERIALIZEPUBLISH.OBJ
D:\TEMP\JUNYU\PNP_AGENT\PPAGENT\RELEASE\MQTTFORMAT.OBJ
D:\TEMP\JUNYU\PNP_AGENT\PPAGENT\RELEASE\MQTTPACKET.OBJ
D:\TEMP\JUNYU\PNP_AGENT\PPAGENT\RELEASE\MQTTSERIALIZEPUBLISH.OBJ
D:\TEMP\JUNYU\PNP_AGENT\PPAGENT\RELEASE\MQTTSUBSCRIBECLIENT.OBJ
D:\TEMP\JUNYU\PNP_AGENT\PPAGENT\RELEASE\MQTTSUBSCRIBESERVER.OBJ
D:\TEMP\JUNYU\PNP_AGENT\PPAGENT\RELEASE\MQTTUNSUBSCRIBECLIENT.OBJ
D:\TEMP\JUNYU\PNP_AGENT\PPAGENT\RELEASE\MQTTUNSUBSCRIBESERVER.OBJ
D:\TEMP\JUNYU\PNP_AGENT\PPAGENT\RELEASE\GETOPT.OBJ
D:\TEMP\JUNYU\PNP_AGENT\PPAGENT\RELEASE\GETOPT_LONG.OBJ
D:\TEMP\JUNYU\PNP_AGENT\PPAGENT\RELEASE\GETTIMEOFDAY.OBJ
D:\TEMP\JUNYU\PNP_AGENT\PPAGENT\RELEASE\WIN32.OBJ
D:\TEMP\JUNYU\PNP_AGENT\PPAGENT\RELEASE\MAIN.OBJ
D:\TEMP\JUNYU\PNP_AGENT\PPAGENT\RELEASE\WAMQTTMANAGER.OBJ
D:\TEMP\JUNYU\PNP_AGENT\PPAGENT\RELEASE\PCH.OBJ
D:\TEMP\JUNYU\PNP_AGENT\PPAGENT\RELEASE\TEST.OBJ
D:\TEMP\JUNYU\PNP_AGENT\PPAGENT\RELEASE\LOGGER.OBJ
D:\TEMP\JUNYU\PNP_AGENT\PPAGENT\RELEASE\STACKTRACER.OBJ
C:\PROGRAM FILES (X86)\MICROSOFT VISUAL STUDIO 12.0\VC\BIN\C2.DLL
C:\PROGRAM FILES (X86)\MICROSOFT VISUAL STUDIO 12.0\VC\LIB\MSVCPRT.LIB
D:\TEMP\JUNYU\PNP_AGENT\PPAGENT\BOOST_1_60_0\BIN\LIBBOOST_DATE_TIME-VC120-MT-1_60.LIB
D:\TEMP\JUNYU\PNP_AGENT\PPAGENT\BOOST_1_60_0\BIN\LIBBOOST_LOG-VC120-MT-1_60.LIB
D:\TEMP\JUNYU\PNP_AGENT\PPAGENT\BOOST_1_60_0\BIN\LIBBOOST_SYSTEM-VC120-MT-1_60.LIB
D:\TEMP\JUNYU\PNP_AGENT\PPAGENT\BOOST_1_60_0\BIN\LIBBOOST_FILESYSTEM-VC120-MT-1_60.LIB
D:\TEMP\JUNYU\PNP_AGENT\PPAGENT\BOOST_1_60_0\BIN\LIBBOOST_THREAD-VC120-MT-1_60.LIB
D:\TEMP\JUNYU\PNP_AGENT\PPAGENT\BOOST_1_60_0\BIN\LIBBOOST_LOG_SETUP-VC120-MT-1_60.LIB
D:\TEMP\JUNYU\PNP_AGENT\PPAGENT\BOOST_1_60_0\BIN\LIBBOOST_CHRONO-VC120-MT-1_60.LIB
D:\TEMP\JUNYU\PNP_AGENT\PPAGENT\BOOST_1_60_0\BIN\LIBBOOST_ATOMIC-VC120-MT-1_60.LIB
C:\PROGRAM FILES (X86)\MICROSOFT VISUAL STUDIO 12.0\VC\LIB\MSVCRT.LIB
C:\PROGRAM FILES (X86)\MICROSOFT VISUAL STUDIO 12.0\VC\LIB\OLDNAMES.LIB
C:\PROGRAM FILES (X86)\MICROSOFT SDKS\WINDOWS\V7.1A\LIB\DBGHELP.LIB
C:\PROGRAM FILES (X86)\MICROSOFT VISUAL STUDIO 12.0\VC\BIN\1028\LINKUI.DLL
C:\PROGRAM FILES (X86)\MICROSOFT VISUAL STUDIO 12.0\VC\BIN\MSPDBSRV.EXE
C:\PROGRAM FILES (X86)\MICROSOFT SDKS\WINDOWS\V7.1A\BIN\RC.EXE
C:\PROGRAM FILES (X86)\MICROSOFT VISUAL STUDIO 12.0\VC\BIN\CVTRES.EXE
C:\WINDOWS\SYSTEM32\TZRES.DLL
C:\WINDOWS\SYSTEM32\RSAENH.DLL
